Estimating infection incidence with augmented confirmed case counts
…
jhucsse$Province_State <- as.factor(jhucsse$Province_State)

# Smoothing only
incidence_data <- est_daily_incidence(jhucsse,
                                      ISOdate(2019,12,1),
                                      Sys.time())

# Smoothing plus correct for the change in reportin on the 13th
corrected_hubei <- correct_for_Hubei_reporting(jhucsse,
                                               ISOdate(2019,12,1),
                                               Sys.time())

## # A tibble: 23 x 3
##    Province_State Date                Incidence
##    <fct>          <dttm>                  <dbl>
##  1 Hubei          2020-02-15 12:00:00      933.
##  2 Hubei          2020-02-16 12:00:00     1989.
##  3 Hubei          2020-02-17 12:00:00     1883.
##  4 Hubei          2020-02-18 12:00:00     1513.
##  5 Hubei          2020-02-19 12:00:00     1060.
##  6 Hubei          2020-02-20 12:00:00      700.
##  7 Hubei          2020-02-21 12:00:00      506.
##  8 Hubei          2020-02-22 12:00:00      439.
##  9 Hubei          2020-02-23 12:00:00      441.
## 10 Hubei          2020-02-24 12:00:00      461.
## #  with 13 more rows
## [1] -2411.276 -2411.276
## [1] 34.93482 34.93482
…
